{
    "code": 0,
    "result": {
        "page": 1,
        "page_size": 10,
        "total_count": 60,
        "page_count": 6,
        "item_list": [{
            "id": 1,
            "name": "city",
            "mode": 1,
            "op_mode": 1,
            "franchisee_id": 77,
            "franchisee_name": "松果自营",
            "city_admins": [{
                "user_name": "cname",
                "user_id": 10001
            }],
            "open_time": "datetime",
            "sys_user_name": "cname",
            "update_time": 15020476737000
        },{
            "id": 2,
            "name": "city",
            "mode": 1,
            "op_mode": 1,
            "franchisee_id": 77,
            "franchisee_name": "松果自营",
            "city_admins": [{
                "user_name": "cname",
                "user_id": 10001
            }],
            "open_time": "datetime",
            "sys_user_name": "cname",
            "update_time": 15020476737000
        },{
            "id": 3,
            "name": "city",
            "mode": 1,
            "op_mode": 1,
            "franchisee_id": 77,
            "franchisee_name": "松果自营",
            "city_admins": [{
                "user_name": "cname",
                "user_id": 10001
            }],
            "open_time": "datetime",
            "sys_user_name": "cname",
            "update_time": 15020476737000
        },{
            "id": 4,
            "name": "city",
            "mode": 1,
            "op_mode": 1,
            "franchisee_id": 77,
            "franchisee_name": "松果自营",
            "city_admins": [{
                "user_name": "cname1",
                "user_id": 10001
            },{
                "user_name": "cname2",
                "user_id": 10002
            },{
                "user_name": "cname3",
                "user_id": 10003
            }],
            "open_time": "datetime",
            "sys_user_name": "cname",
            "update_time": 15020476737000
        },{
            "id": 5,
            "name": "city",
            "mode": 1,
            "op_mode": 1,
            "franchisee_id": 77,
            "franchisee_name": "松果自营",
            "city_admins": [{
                "user_name": "cname5",
                "user_id": 10005
            },{
                "user_name": "cname7",
                "user_id": 10007
            },{
                "user_name": "cname9",
                "user_id": 10009
            }],
            "open_time": "datetime",
            "sys_user_name": "cname",
            "update_time": 15020476737000
        }]
    }
}