{
    "code": 0,
    "result":{
        "page":1,
        "page_size":10,
        "total_count":85,
        "page_count":9,
        "item_list":[
            {
                "id":1234567,
                "order_sn":"T180733367",
                "bike_sn":"800116090",
                "user_id":908352,
                "user_name":"王丽",
                "mobile":"12123124534",
                "distance":2000,
                "total_time":4000,
                "status":2,
                "start_time":"1983-08-18 12:23:03",
                "end_time":"1942-09-21 12:32:54",
                "total_fee":1000,
                "user_pay":300
            },
            {
                "id":1234568,
                "order_sn":"T180733367",
                "bike_sn":"800116090",
                "user_id":908352,
                "user_name":"董卓",
                "mobile":"12123124534",
                "distance":2000,
                "total_time":4000,
                "status":2,
                "start_time":"1983-08-18 12:23:03",
                "end_time":"1942-09-21 12:32:54",
                "total_fee":1000,
                "user_pay":300
            },
            {
                "id":1234569,
                "order_sn":"T180733367",
                "bike_sn":"800116090",
                "user_id":908352,
                "user_name":"曹操",
                "mobile":"12123124534",
                "distance":2000,
                "total_time":4000,
                "status":2,
                "start_time":"1983-08-18 12:23:03",
                "end_time":"1942-09-21 12:32:54",
                "total_fee":1000,
                "user_pay":300
            },
            {
                "id":1234512,
                "order_sn":"T180733367",
                "bike_sn":"800116090",
                "user_id":908352,
                "user_name":"路飞",
                "mobile":"12123124534",
                "distance":2000,
                "total_time":4000,
                "status":2,
                "start_time":"1983-08-18 12:23:03",
                "end_time":"1942-09-21 12:32:54",
                "total_fee":1000,
                "user_pay":300
            },
            {
                "id":1234542,
                "order_sn":"T180733367",
                "bike_sn":"800116090",
                "user_id":908352,
                "user_name":"鸣人",
                "mobile":"12123124534",
                "distance":2000,
                "total_time":4000,
                "status":2,
                "start_time":"1983-08-18 12:23:03",
                "end_time":"1942-09-21 12:32:54",
                "total_fee":1000,
                "user_pay":300
            },
            {
                "id":1234545,
                "order_sn":"T180733367",
                "bike_sn":"800116090",
                "user_id":908352,
                "user_name":"柯南",
                "mobile":"12123124534",
                "distance":2000,
                "total_time":4000,
                "status":2,
                "start_time":"1983-08-18 12:23:03",
                "end_time":"1942-09-21 12:32:54",
                "total_fee":1000,
                "user_pay":300
            }
        ]
    }
}